Blockbuster modelling: wow; what a difference!
…
Or we could rank the blocks in order of their total backlog after one year:

my_block %>%
  filter(year == 1) %>%
  group_by(buildingid) %>%
  summarise(total = sum(backlog)) %>%
  arrange(desc(total))

## # A tibble: 50 x 2
##    buildingid    total
##         <int>    <dbl>
##  1         28 79832112
##  2         45  7190815
##  3         44  6072017
##  4         42  5393311
##  5         43  4586037
##  6         15  3781837
##  7         13  1959172
##  8         32  1666905
##  9          1  1550569
## 10          4  1453716
## # ... with 40 more rows
…
